<svg width="151" height="49" viewBox="0 0 151 49" fill="none" xmlns="http://www.w3.org/2000/svg">
<path d="M11.5209 2.75625C6.6821 2.75625 2.765 6.66094 2.765 11.4844C2.765 16.3078 6.6821 20.2891 11.5209 20.2891C16.3596 20.2891 20.3535 16.3844 20.3535 11.4844C20.2767 6.66094 16.3596 2.75625 11.5209 2.75625ZM11.5209 22.9688C5.14598 22.9688 5.85981e-07 17.8391 5.85981e-07 11.4844C5.85981e-07 5.12969 5.14598 0 11.5209 0C17.8957 0 23.0417 5.12969 23.0417 11.4844C22.9649 17.8391 17.8189 22.9688 11.5209 22.9688Z" transform="translate(24.3474 13.0156)" fill="black"/>
<path d="M11.5209 20.2891C6.6821 20.2891 2.6882 16.3078 2.6882 11.4844C2.6882 6.66094 6.60529 2.67969 11.444 2.67969C16.2828 2.67969 20.1999 6.58437 20.1999 11.4844C20.2767 16.3078 16.3596 20.2891 11.5209 20.2891ZM11.5209 0C7.98779 0 4.83876 1.60781 2.765 4.05781V1.30156H0V35.9844H2.6882V18.8344C4.83876 21.3609 7.98779 22.9688 11.5209 22.9688C17.8957 22.9688 23.0417 17.8391 23.0417 11.4844C23.0417 5.12969 17.8189 0 11.5209 0Z" transform="translate(0 13.0156)" fill="black"/>
<path d="M2.6882 0H2.34392e-06V35.9844H2.6882V0Z" transform="translate(49.3861)" fill="black"/>
<path d="M19.1246 0L2.6882 16.4609V0H0V22.9688L22.9649 0H19.1246Z" transform="translate(54.148 13.0156)" fill="black"/>
<path d="M18.6638 11.025C19.6623 12.4797 20.2767 14.1641 20.2767 16.0781C20.2767 20.9016 16.3596 24.8828 11.4441 24.8828C6.60529 24.8828 2.6114 20.9781 2.6114 16.0781C2.6114 11.2547 6.52849 7.27344 11.4441 7.27344C13.2874 7.27344 15.0539 7.88594 16.5132 8.88125C17.0509 8.34531 17.7421 7.65625 18.4334 6.96719C18.8942 6.50781 19.6623 5.74219 20.1999 5.20625L22.3505 7.35L18.6638 11.025ZM27.5732 8.65156L18.8942 0L18.3566 3.29219L16.0524 5.58906C14.6699 4.97656 13.1338 4.67031 11.5209 4.67031C5.14598 4.67031 -2.34392e-06 9.8 -2.34392e-06 16.1547C-2.34392e-06 22.5094 5.14598 27.6391 11.5209 27.6391C17.8957 27.6391 23.0417 22.5094 23.0417 16.1547C23.0417 14.5469 22.7345 13.0156 22.12 11.6375C22.8881 10.8719 23.6562 10.1063 24.4242 9.34063L27.5732 8.65156Z" transform="translate(123.427 8.42189)" fill="black"/>
<path d="M4.68785e-06 0.816488C4.68785e-06 4.41493 2.91862 7.3243 6.52849 7.3243C10.1384 7.3243 13.057 4.41493 13.057 0.816488C7.45016 4.56805 6.22127 -2.24601 4.68785e-06 0.816488Z" transform="translate(128.342 23.6835)" fill="#F26722"/>
<path d="M3.84029 1.91406C3.84029 0.842188 2.99542 0 1.92014 0C0.844865 0 2.34392e-06 0.842188 2.34392e-06 1.91406C2.34392e-06 2.98594 0.844865 3.82812 1.92014 3.82812C2.99542 3.82812 3.84029 2.98594 3.84029 1.91406Z" transform="translate(136.177 20.2891)" fill="#F26722"/>
<path d="M0 1.76094C0 2.75625 0.768059 3.52188 1.76653 3.52188C2.76501 3.52188 3.53307 2.75625 3.53307 1.76094C3.53307 0.765625 2.76501 0 1.76653 0C0.844865 0 0 0.765625 0 1.76094Z" transform="translate(147.083 9.18751)" fill="#F26722"/>
<path d="M0 1.07187C0 1.68437 0.460829 2.14375 1.07528 2.14375C1.68972 2.14375 2.15056 1.68437 2.15056 1.07187C2.15056 0.535937 1.68972 1.46031e-07 1.07528 1.46031e-07C0.460829 1.46031e-07 0 0.459375 0 1.07187Z" transform="translate(147.851 6.3547)" fill="#F26722"/>
<path d="M6.52849 10.1063C4.53154 10.1063 2.91862 8.49844 2.91862 6.50781C2.91862 4.51719 4.53154 2.90937 6.52849 2.90937C8.52543 2.90937 10.1384 4.51719 10.1384 6.50781C10.1384 8.49844 8.52543 10.1063 6.52849 10.1063ZM6.52849 0C2.91862 0 2.34392e-06 2.90938 2.34392e-06 6.50781C2.34392e-06 10.1062 2.91862 13.0156 6.52849 13.0156C10.1384 13.0156 13.057 10.1062 13.057 6.50781C13.057 2.90938 10.1384 0 6.52849 0Z" transform="translate(78.1882 17.9922)" fill="#1ED699"/>
<path d="M14.7467 20.2125C9.90794 20.2125 5.91404 16.3078 5.91404 11.4078C5.91404 6.58437 9.83113 2.60312 14.7467 2.60312C19.5855 2.60312 23.5793 6.50781 23.5793 11.4078C23.5793 16.3078 19.5855 20.2125 14.7467 20.2125ZM14.7467 0C8.37182 0 3.22584 5.12969 3.22584 11.4844C3.22584 14.0875 4.14751 16.5375 5.60682 18.4516L-1.17196e-06 24.0406L2.15056 26.1844L7.75737 20.5953C9.67752 22.05 12.1353 22.9688 14.7467 22.9688C21.1216 22.9688 26.2676 17.8391 26.2676 11.4844C26.2676 5.12969 21.1216 0 14.7467 0Z" transform="translate(69.97 13.0156)" fill="black"/>
<path d="M11.5209 20.2891C6.6821 20.2891 2.6882 16.3078 2.6882 11.4844C2.6882 6.66094 6.6821 2.67969 11.5209 2.67969C16.3596 2.67969 20.3535 6.66094 20.3535 11.4844C20.3535 16.3844 16.3596 20.2891 11.5209 20.2891ZM11.5209 -2.92063e-07C5.14598 -2.92063e-07 0 5.12969 0 11.4844C0 17.8391 5.14598 22.9688 11.5209 22.9688C17.8957 22.9688 23.0417 17.8391 23.0417 11.4844C23.0417 5.20625 17.8957 -2.92063e-07 11.5209 -2.92063e-07Z" transform="translate(98.3113 12.9391)" fill="black"/>
<path d="M4.99237 0H2.34392e-06V2.67969H4.99237V0Z" transform="translate(107.374 9.03437)" fill="black"/>
<path d="M2.68395 0H2.34021e-06V4.98448H2.68395V0Z" transform="translate(117.108 13.6287) scale(1.00157 0.998403) rotate(-45.0081)" fill="black"/>
<path d="M7.37335 7.42656C6.91252 7.88594 6.14445 7.88594 5.68362 7.42656C5.22278 6.96719 5.22278 6.20156 5.68362 5.74219C6.14445 5.28281 9.90793 3.21563 9.90793 3.21563C9.90793 3.21563 7.83419 6.89062 7.37335 7.42656ZM6.52848 -2.92063e-07C2.91862 -2.92063e-07 0 2.90938 0 6.50781C0 10.1062 2.91862 13.0156 6.52848 13.0156C10.1384 13.0156 13.057 10.1062 13.057 6.50781C13.1338 2.90938 10.1384 -2.92063e-07 6.52848 -2.92063e-07Z" transform="translate(103.304 17.9156)" fill="#6D41D8"/>
</svg>
